…
# return reduced data
partition_scores(prt)
#> # A tibble: 100 x 8
#>    block1_x1 block1_x2 block1_x3 block2_x2 block2_x3 reduced_var_1
#>        <dbl>     <dbl>     <dbl>     <dbl>     <dbl>         <dbl>
#>  1    0.826      0.458     0.462   -1.20      0.408        -0.250 
#>  2   -0.903     -0.214    -1.27    -0.773    -0.829         0.608 
#>  3    0.0922    -0.285     0.893   -0.782     0.302        -0.725 
#>  4    0.446     -0.462     1.26    -1.63     -0.798         0.0306
#>  5    0.967     -0.868    -1.34     0.493     1.21          0.177 
#>  6   -0.607     -0.229     0.397    2.41      0.816        -0.683 
#>  7    0.640     -0.127     1.39    -0.320    -1.51         -0.568 
#>  8   -1.24      -0.271    -1.45     0.307     0.0241        1.43  
#>  9    0.125     -0.308     0.535   -0.0230   -0.502         2.18  
#> 10   -2.67      -1.57     -2.18    -0.526    -0.990        -0.495 
#> # … with 90 more rows, and 2 more variables: reduced_var_2 <dbl>,
#> #   reduced_var_3 <dbl>
…
