Create a partition object from a data frame — as_partition_step • partition
…
#> 98  -0.38839312 -0.456289814
#> 99  -1.84776501 -0.002214323
#> 100 -0.11523702 -0.733182978
#> 
#> $threshold
#> [1] 0.6
#> 
#> $target
#> [1] NA
#> 
#> $last_target
#> [1] NA
#> 
#> $reduced_data
#> # A tibble: 100 × 2
#>         x      y
#>     <dbl>  <dbl>
#>  1 -0.265  0.489
#>  2  0.101 -0.877
#>  3  0.339  1.92 
#>  4  0.282 -0.537
#>  5 -0.737  1.64 
#>  6  0.432 -0.603
#>  7  0.378  0.802
#>  8  0.240  1.39 
#>  9  0.718  2.76 
#> 10  0.511 -0.771
#> # … with 90 more rows
…
