Agglomerative Partitioning Framework for Dimension Reduction • partition2
…
# return reduced data
partition_scores(prt)
#> # A tibble: 100 x 11
#>    block1_x1 block1_x2 block1_x3 block2_x1 block2_x2 block3_x1 block3_x2
#>        <dbl>     <dbl>     <dbl>     <dbl>     <dbl>     <dbl>     <dbl>
#>  1   -1.00     -0.344      1.35     -0.526    -1.25      1.13     0.357 
#>  2    0.518    -0.434     -0.361    -1.48     -1.53     -0.317    0.290 
#>  3   -1.77     -0.913     -0.722     0.122     0.224    -0.529    0.114 
#>  4   -1.49     -0.998      0.189     0.149    -0.994    -0.433    0.0120
#>  5    0.616     0.0211     0.895     1.09     -1.25      0.440   -0.550 
#>  6    0.0765    0.522      1.20     -0.152    -0.419    -0.912   -0.362 
#>  7    1.74      0.0993    -0.654    -1.26     -0.502    -0.792   -1.03  
#>  8    1.05      2.19       0.913     0.254     0.328    -1.07    -0.976 
#>  9   -1.07     -0.292     -0.763     0.437     0.739     0.899   -0.342 
#> 10   -1.02     -0.959     -1.33     -1.57     -1.11      0.618    0.153 
#> # … with 90 more rows, and 4 more variables: block3_x3 <dbl>,
#> #   block3_x4 <dbl>, block3_x5 <dbl>, reduced_var_1 <dbl>
…
