Introduction to Partition • partition
…
library(partition)
library(ggplot2)
set.seed(1234)
# create a 100 x 15 data set with 3 blocks
df <- simulate_block_data(
  # create 3 correlated blocks of 5 variables each
  block_sizes = rep(5, 3),
  lower_corr = .4,
  upper_corr = .6,
  n = 100
)

df
#> # A tibble: 100 x 15
#>    block1_x1 block1_x2 block1_x3 block1_x4 block1_x5 block2_x1 block2_x2
#>        <dbl>     <dbl>     <dbl>     <dbl>     <dbl>     <dbl>     <dbl>
#>  1   -0.306     -0.187    -1.82    -0.533    -0.547     1.71     -0.642 
#>  2   -1.40      -0.179    -1.79    -1.01     -0.839    -0.0401    0.770 
#>  3    1.35       1.27      0.938    1.54      1.38     -0.0359    0.278 
#>  4    0.941      0.786     0.587   -0.0181    0.0350   -0.172    -0.106 
#>  5    0.917      0.294     0.357   -0.711    -1.08     -0.674    -0.0997
#>  6   -0.573      0.159    -0.870   -1.14     -0.272     0.331    -0.583 
#>  7   -0.157      1.62      0.876   -0.0377    0.179     0.278    -0.839 
#>  8   -0.0469    -1.11     -0.359    0.132    -2.07     -0.809     1.33  
#>  9   -0.375     -0.354     0.562   -1.14     -0.131    -1.53     -1.87  
#> 10   -0.680      0.560    -0.687    0.290    -0.672    -0.580     0.0525
#> # … with 90 more rows, and 8 more variables: block2_x3 <dbl>,
#> #   block2_x4 <dbl>, block2_x5 <dbl>, block3_x1 <dbl>, block3_x2 <dbl>,
#> #   block3_x3 <dbl>, block3_x4 <dbl>, block3_x5 <dbl>
…
partition creates a tibble with the newly reduced variables:

partition_scores(prt)
#> # A tibble: 100 x 9
#>    block1_x3 block1_x4 block2_x3 block3_x4 block3_x5 reduced_var_1
#>        <dbl>     <dbl>     <dbl>     <dbl>     <dbl>         <dbl>
#>  1    -1.82    -0.533     0.665     0.884      0.245        0.869 
#>  2    -1.79    -1.01      0.468     1.96       0.463       -0.460 
#>  3     0.938    1.54     -0.142     0.0903    -1.64        -0.357 
#>  4     0.587   -0.0181   -0.824    -1.34      -1.20        -2.07  
#>  5     0.357   -0.711     0.230     0.874     -1.70         0.205 
#>  6    -0.870   -1.14     -1.24     -0.289     -0.406        0.0871
#>  7     0.876   -0.0377   -1.27     -2.50      -1.53        -2.96  
#>  8    -0.359    0.132     0.0977    0.109     -0.152       -0.828 
#>  9     0.562   -1.14     -1.01      0.953     -1.28         0.745 
#> 10    -0.687    0.290     0.605    -1.91      -1.07        -0.645 
#> # … with 90 more rows, and 3 more variables: reduced_var_2 <dbl>,
#> #   reduced_var_3 <dbl>, reduced_var_4 <dbl>
…
