Extending partition • partition
…
#>    Reducer: <custom reducer>
#> 
#> Reduced Variables:
#> 4 reduced variables created from 10 observed variables
#> 
#> Mappings:
#> reduced_var_1 = {block3_x1, block3_x2, block3_x3}
#> reduced_var_2 = {block1_x1, block1_x2, block1_x5}
#> reduced_var_3 = {block2_x2, block2_x5}
#> reduced_var_4 = {block2_x1, block2_x4}
#> 
#> Minimum information:
#> 0.501
partition_scores(prt)
#> # A tibble: 100 x 9
#>    block1_x3 block1_x4 block2_x3 block3_x4 block3_x5 reduced_var_1 reduced_var_2
#>        <dbl>     <dbl>     <dbl>     <dbl>     <dbl>         <dbl>         <dbl>
#>  1    -1.82    -0.533     0.665     0.884      0.245         0.741       -0.347 
#>  2    -1.79    -1.01      0.468     1.96       0.463        -0.331       -0.807 
#>  3     0.938    1.54     -0.142     0.0903    -1.64         -0.248        1.33  
#>  4     0.587   -0.0181   -0.824    -1.34      -1.20         -1.63         0.587 
#>  5     0.357   -0.711     0.230     0.874     -1.70          0.205        0.0430
#>  6    -0.870   -1.14     -1.24     -0.289     -0.406         0.110       -0.228 
#>  7     0.876   -0.0377   -1.27     -2.50      -1.53         -2.35         0.547 
#>  8    -0.359    0.132     0.0977    0.109     -0.152        -0.628       -1.08  
#>  9     0.562   -1.14     -1.01      0.953     -1.28          0.641       -0.287 
#> 10    -0.687    0.290     0.605    -1.91      -1.07         -0.480       -0.264 
#> # … with 90 more rows, and 2 more variables: reduced_var_3 <dbl>,
#> #   reduced_var_4 <dbl>
…
