Introduction to Partition • partition
…
Many types of data follow a pattern like this. Closely related to the block correlation structure found in genetic data is that found in microbiome data. The data set baxter_otu has microbiome data on 172 healthy patients. Each row represents a patient, and each column represents an Operational Taxonomic Unit (OTU). OTUs are species-like relationships between bacteria determined by analyzing their RNA. Each cell in the dataset represents the logged-count of an OTU found in a patient’s stool sample, with 1,234 OTUs in all.

baxter_otu
#> # A tibble: 172 x 1,234
#>    otu_1 otu_2 otu_3 otu_4 otu_5 otu_6 otu_7 otu_8 otu_9 otu_10 otu_11 otu_12
#>    <dbl> <dbl> <dbl> <dbl> <dbl> <dbl> <dbl> <dbl> <dbl>  <dbl>  <dbl>  <dbl>
#>  1  0     0        0  1.39     0  0        0     0     0  2.08   0       0   
#>  2  2.48  0        0  0        0  0        0     0     0  0      0       0   
#>  3  1.10  0        0  3.26     0  0        0     0     0  0      0       0   
#>  4  1.39  0        0  1.10     0  1.10     0     0     0  0.693  0.693   0   
#>  5  0     0        0  3.00     0  0        0     0     0  0      0       2.40
#>  6  0     0        0  0        0  0        0     0     0  0      0       0   
#>  7  0     0        0  0        0  0        0     0     0  0      0       0   
#>  8  0     0        0  0        0  0        0     0     0  0      0       0   
#>  9  0     0        0  0        0  0        0     0     0  0      0       1.79
#> 10  1.39  1.79     0  0        0  0        0     0     0  0      0       0   
#> # … with 162 more rows, and 1,222 more variables: otu_13 <dbl>, otu_14 <dbl>,
#> #   otu_15 <dbl>, otu_16 <dbl>, otu_17 <dbl>, otu_18 <dbl>, otu_19 <dbl>,
#> #   otu_20 <dbl>, otu_21 <dbl>, otu_22 <dbl>, …
…
For the microbiome data, partition() reduced 158 of the OTUs to 63 reduced features. The other 1,076 OTUs were not reduced because doing so would have removed too much information from the data. partition() creates a tibble with the newly reduced features, as well as any features that were not reduced, which you can get with partition_scores():

partition_scores(prt)
#> # A tibble: 172 x 1,139
#>    otu_1 otu_2 otu_3 otu_4 otu_5 otu_6 otu_7 otu_8 otu_9 otu_10 otu_11 otu_12
#>    <dbl> <dbl> <dbl> <dbl> <dbl> <dbl> <dbl> <dbl> <dbl>  <dbl>  <dbl>  <dbl>
#>  1  0     0        0  1.39     0  0        0     0     0  2.08   0       0   
#>  2  2.48  0        0  0        0  0        0     0     0  0      0       0   
#>  3  1.10  0        0  3.26     0  0        0     0     0  0      0       0   
#>  4  1.39  0        0  1.10     0  1.10     0     0     0  0.693  0.693   0   
#>  5  0     0        0  3.00     0  0        0     0     0  0      0       2.40
#>  6  0     0        0  0        0  0        0     0     0  0      0       0   
#>  7  0     0        0  0        0  0        0     0     0  0      0       0   
#>  8  0     0        0  0        0  0        0     0     0  0      0       0   
#>  9  0     0        0  0        0  0        0     0     0  0      0       1.79
#> 10  1.39  1.79     0  0        0  0        0     0     0  0      0       0   
#> # … with 162 more rows, and 1,127 more variables: otu_13 <dbl>, otu_14 <dbl>,
#> #   otu_15 <dbl>, otu_16 <dbl>, otu_17 <dbl>, otu_19 <dbl>, otu_20 <dbl>,
#> #   otu_21 <dbl>, otu_22 <dbl>, otu_23 <dbl>, …

In comparison, PCA produces a data set of the same dimensions of the original data where all original variables map to all new components in some amount. While components are organized by their informativeness (the first component explains the most variance), no original features are retained.

pca <- prcomp(baxter_otu)

# print the results more neatly
tibble::as_tibble(pca$x)
#> # A tibble: 172 x 172
#>       PC1    PC2      PC3    PC4   PC5    PC6     PC7    PC8   PC9   PC10
#>     <dbl>  <dbl>    <dbl>  <dbl> <dbl>  <dbl>   <dbl>  <dbl> <dbl>  <dbl>
#>  1  -7.52  5.45   -1.43    1.38  -3.75  6.94  -6.89    4.95  -1.80  2.66 
#>  2   1.62 -4.42   14.9     2.40   3.95  4.30   3.63   -5.84  -1.31  2.78 
#>  3  -9.97 -5.05  -10.2    -0.628  6.36  3.79   0.614  -1.17   1.68  1.28 
#>  4 -10.6   3.91   -1.78   -2.91   1.03  7.24   0.528   8.40   8.26  2.89 
#>  5 -16.2  -4.19    2.76    9.84   1.79  1.62  -6.23   -0.543  4.11  1.63 
#>  6  14.6   0.339  -0.0895  4.11  -1.61 -7.36   5.92    0.735 -6.61  2.08 
#>  7   4.84 -5.08    3.34   -2.74  -2.57 -2.13   6.25    0.858 -1.22 -2.78 
#>  8 -14.2  -7.79    5.29    8.99  -2.38 -0.718  0.0578 -0.676 -2.19  3.13 
#>  9  -5.47 -3.48   -1.86   -4.15  -2.62 -0.510  4.94   -9.12   5.12 -0.126
#> 10 -11.8   9.68   -0.394   4.92  -1.20 -4.57  -6.54   -2.72   6.81  0.181
#> # … with 162 more rows, and 162 more variables: PC11 <dbl>, PC12 <dbl>,
#> #   PC13 <dbl>, PC14 <dbl>, PC15 <dbl>, PC16 <dbl>, PC17 <dbl>, PC18 <dbl>,
#> #   PC19 <dbl>, PC20 <dbl>, …
…
Retrieve a key for these mappings and the information each feature explains with mapping_key(), which returns a nested tibble.

mapping_key(prt)
#> # A tibble: 1,139 x 4
#>    variable mapping   information indices  
#>    <chr>    <list>          <dbl> <list>   
#>  1 otu_1    <chr [1]>           1 <int [1]>
#>  2 otu_2    <chr [1]>           1 <int [1]>
#>  3 otu_3    <chr [1]>           1 <int [1]>
#>  4 otu_4    <chr [1]>           1 <int [1]>
#>  5 otu_5    <chr [1]>           1 <int [1]>
#>  6 otu_6    <chr [1]>           1 <int [1]>
#>  7 otu_7    <chr [1]>           1 <int [1]>
#>  8 otu_8    <chr [1]>           1 <int [1]>
#>  9 otu_9    <chr [1]>           1 <int [1]>
#> 10 otu_10   <chr [1]>           1 <int [1]>
#> # … with 1,129 more rows

To see each mapping, unnest them using unnest_mappings() (or do it yourself with tidyr::unnest())

unnest_mappings(prt)
#> # A tibble: 1,234 x 4
#>    variable mapping information indices
#>    <chr>    <chr>         <dbl>   <int>
#>  1 otu_1    otu_1             1       1
#>  2 otu_2    otu_2             1       2
#>  3 otu_3    otu_3             1       3
#>  4 otu_4    otu_4             1       4
#>  5 otu_5    otu_5             1       5
#>  6 otu_6    otu_6             1       6
#>  7 otu_7    otu_7             1       7
#>  8 otu_8    otu_8             1       8
#>  9 otu_9    otu_9             1       9
#> 10 otu_10   otu_10            1      10
#> # … with 1,224 more rows
…
